amqp==1.4.9
anyjson==0.3.3
beautifulsoup4==4.6.1
billiard==3.3.0.23
bs4==0.0.1
celery==3.1.25
certifi==2018.4.16
chardet==3.0.4
cycler==0.10.0
elasticsearch==6.3.1
idna==2.7
jieba==0.39
kiwisolver==1.0.1
kombu==3.0.37
matplotlib==2.2.3
numpy==1.15.0
pandas==0.23.4
pyconvert==0.6.3
pyparsing==2.2.0
pyrestful==0.4.2
python-dateutil==2.7.3
pytz==2018.5
redis==3.0.1
requests==2.19.1
six==1.11.0
tornado==4.5.3
urllib3==1.23
Whoosh==2.7.4
